<?xml version="1.0" standalone="no"?>
<!DOCTYPE svg PUBLIC "-//W3C//DTD SVG 20010904//EN"
 "http://www.w3.org/TR/2001/REC-SVG-20010904/DTD/svg10.dtd">
<svg version="1.0" xmlns="http://www.w3.org/2000/svg"
 width="639.000000pt" height="639.000000pt" viewBox="0 0 639.000000 639.000000"
 preserveAspectRatio="xMidYMid meet">
<metadata>
Created by potrace 1.11, written by Peter Selinger 2001-2013
</metadata>
<g transform="translate(0.000000,639.000000) scale(0.100000,-0.100000)"
fill="#000000" stroke="none">
<path d="M2821 6369 c-575 -78 -1063 -269 -1500 -587 -272 -198 -514 -441
-713 -713 -507 -695 -710 -1580 -558 -2436 75 -422 240 -834 479 -1195 212
-322 526 -644 836 -860 714 -497 1592 -681 2453 -513 141 27 346 85 482 135
301 110 641 304 905 516 526 422 929 1057 1089 1717 67 273 88 448 91 737 2
227 0 263 -36 511 -77 539 -308 1064 -666 1517 -97 122 -358 384 -483 483
-474 378 -992 599 -1605 685 -179 25 -597 27 -774 3z m1283 -844 c-57 -149
-127 -326 -154 -395 -45 -115 -118 -303 -190 -490 -16 -41 -68 -174 -116 -295
-90 -231 -128 -328 -189 -485 -43 -113 -90 -233 -183 -470 -38 -96 -68 -176
-67 -178 3 -3 103 35 350 133 116 46 325 129 465 184 140 55 354 139 475 186
121 48 281 111 355 140 74 29 200 79 280 110 200 79 340 134 509 200 79 31
145 54 147 52 2 -2 -217 -232 -486 -512 l-490 -509 73 -75 c40 -42 261 -271
492 -510 231 -238 422 -437 423 -442 2 -5 -11 -3 -30 6 -18 8 -154 62 -303
121 -148 58 -387 152 -530 209 -143 57 -312 124 -375 148 -63 25 -257 101
-430 170 -173 69 -380 151 -460 182 -80 32 -201 80 -270 107 -69 27 -142 56
-162 63 l-37 14 10 -27 c6 -15 33 -85 61 -157 122 -314 180 -462 189 -485 6
-14 49 -124 96 -245 46 -121 113 -292 148 -380 34 -88 82 -209 105 -270 23
-60 46 -119 51 -130 5 -11 38 -96 74 -190 37 -93 81 -208 100 -255 98 -248
163 -418 170 -439 4 -14 -209 187 -501 472 -280 273 -513 497 -519 497 -5 0
-239 -222 -520 -494 -280 -271 -511 -492 -513 -491 -2 1 56 150 129 331 72
181 158 397 190 479 33 83 64 159 69 170 5 11 41 101 80 200 39 99 75 189 80
200 5 11 60 151 123 310 63 160 169 427 236 594 67 167 121 305 121 306 0 2
-44 -14 -97 -35 -164 -63 -331 -129 -473 -185 -765 -303 -1051 -415 -1056
-415 -3 0 -24 -8 -47 -19 -23 -10 -71 -30 -107 -44 -127 -50 -406 -159 -495
-194 -49 -19 -112 -44 -140 -55 -110 -46 -165 -66 -165 -62 0 3 221 233 490
511 270 279 490 509 490 512 0 3 -222 233 -494 511 -271 278 -492 506 -491
508 3 4 76 -23 240 -88 175 -69 391 -154 745 -292 162 -64 372 -146 465 -183
162 -64 416 -164 755 -297 85 -34 204 -81 264 -104 60 -24 111 -43 112 -41 1
1 -38 103 -87 227 -526 1322 -690 1732 -800 2009 -72 178 -128 325 -126 327 2
2 235 -216 517 -485 l513 -490 505 499 c278 275 507 498 508 497 2 -2 -44
-124 -102 -272z"/>
</g>
</svg>
